map_info[0] = {ID:66,sID:0,LatLngX:'42,007082',LatLngY:'24,875536',city:'Асеновград',phone:'ФЦ Асеновград',addr:'ул."Н. Хайтов" № 9'};
      map_info[1] = {ID:25,sID:0,LatLngX:'42,70562',LatLngY:'23,14804',city:'Банкя',phone:'Община Банкя',addr:'ул."Цар Симеон" № 1'};
      map_info[2] = {ID:51,sID:0,LatLngX:'42,01941',LatLngY:'23,09925',city:'Благоевград ',phone:'ФЦ Благоевград',addr:'ул."Тодор Александров" № 23'};
      map_info[3] = {ID:28,sID:0,LatLngX:'42,49279',LatLngY:'27,46728',city:'Бургас',phone:'Магазин "БОШ"',addr:'ул."Фердинандова" № 60'};
      map_info[4] = {ID:8,sID:0,LatLngX:'43,202705',LatLngY:'27,91413',city:'Варна',phone:'ФЦ Варна',addr:'ул."Преслав" № 61'};
      map_info[5] = {ID:44,sID:0,LatLngX:'43,205856',LatLngY:'23,548089',city:'Враца',phone:'ФЦ Враца',addr:'ул."Христо Ботев" № 46'};
      map_info[6] = {ID:4,sID:0,LatLngX:'42,87099',LatLngY:'25,31756',city:'Габрово',phone:'ФЦ Габрово',addr:'ул."Априловска" № 9'};
      map_info[7] = {ID:56,sID:0,LatLngX:'43,63947',LatLngY:'24,69569',city:'Гулянци',phone:'ИРМ Гулянци',addr:'площад "Свобода" №2'};
      map_info[8] = {ID:61,sID:0,LatLngX:'43,56842',LatLngY:'27,82555',city:'Добрич',phone:'ФЦ Добрич',addr:'ул."Независимост" №14'};
      map_info[9] = {ID:43,sID:0,LatLngX:'42,263771',LatLngY:'23,118783',city:'Дупница',phone:'ФЦ Дупница',addr:'площад "Методи Димов" № 1'};
      map_info[10] = {ID:13,sID:0,LatLngX:'42,617649',LatLngY:'25,39228',city:'Казанлък',phone:'Община Казанлък',addr:'ул."Розова долина" № 8'};
      map_info[11] = {ID:87,sID:0,LatLngX:'43,651781',LatLngY:'23,753546',city:'Козлодуй',phone:'ФЦ Козлодуй',addr:'ул."Христо Ботев" № 1'};
      map_info[12] = {ID:6,sID:0,LatLngX:'42,88932',LatLngY:'26,447',city:'Котел',phone:'ФЦ Котел',addr:'ул."Алеко Богориди" №3'};
      map_info[13] = {ID:67,sID:0,LatLngX:'41,641093',LatLngY:'25,37104',city:'Кърджали',phone:'ФЦ Кърджали',addr:'ул."Стефан Караджа" № 7'};
      map_info[14] = {ID:76,sID:0,LatLngX:'42,27987',LatLngY:'22,69023',city:'Кюстендил',phone:'Магазин "Европа"',addr:'ул."Пауталия" № 10'};
      map_info[15] = {ID:60,sID:0,LatLngX:'43,13774',LatLngY:'24,7177',city:'Ловеч',phone:'ФЦ Ловеч',addr:'ул."Търговска" № 42'};
      map_info[16] = {ID:90,sID:0,LatLngX:'43,407698',LatLngY:'23,226686',city:'Монтана',phone:'ФЦ Монтана',addr:'ул."Стефан Караджа" № 4'};
      map_info[17] = {ID:62,sID:0,LatLngX:'42,187738',LatLngY:'24,329701',city:'Пазарджик',phone:'ФЦ Пазарджик',addr:'бул."България" 23'};
      map_info[18] = {ID:12,sID:0,LatLngX:'42,61222',LatLngY:'23,03601',city:'Перник',phone:'МБАЛ "Рахила Ангелова"',addr:'ул."Брезник" № 2 '};
      map_info[19] = {ID:107,sID:0,LatLngX:'42,700778',LatLngY:'25,898187',city:'Твърдица',phone:'ФЦ Твърдица',addr:'площад "Свобода" 6'};
      map_info[20] = {ID:33,sID:0,LatLngX:'41,39533',LatLngY:'23,20716',city:'Петрич',phone:'Община Петрич',addr:'ул."Цар Борис III" № 24'};
      map_info[21] = {ID:72,sID:0,LatLngX:'42,030631',LatLngY:'24,301168',city:'Пещера',phone:'ФЦ Пещера',addr:'ул."П.Раков" № 9'};
      map_info[22] = {ID:54,sID:0,LatLngX:'43,40866',LatLngY:'24,62166',city:'Плевен',phone:'ФЦ Плевен',addr:'ул."Кирил и Методий" № 10'};
      map_info[23] = {ID:109,sID:0,LatLngX:'43,52659',LatLngY:'26,525678',city:'Разград',phone:'ФЦ Разград',addr:'ул. "Иван Вазов" 21'};
      map_info[24] = {ID:65,sID:0,LatLngX:'42,150272',LatLngY:'24,7500115',city:'Пловдив',phone:'ФЦ Пловдив',addr:'бул."Цар Борис III" № 62'};
      map_info[25] = {ID:7,sID:0,LatLngX:'42,55971',LatLngY:'27,63816',city:'Поморие',phone:'ФЦ Поморие',addr:'ул."Сливница" № 7Д'};
      map_info[26] = {ID:37,sID:0,LatLngX:'42,28968',LatLngY:'25,9344',city:'Раднево',phone:'ФЦ Раднево',addr:'ул."Тачо Даскалов" № 2'};
      map_info[27] = {ID:63,sID:0,LatLngX:'43,847649',LatLngY:'25,951402',city:'Русе',phone:'ФЦ Русе',addr:'ул." Александровска" № 28'};
      map_info[28] = {ID:52,sID:0,LatLngX:'41,55861',LatLngY:'23,27469',city:'Сандански',phone:'ФЦ Сандански',addr:'ул."Свобода" № 18'};
      map_info[29] = {ID:57,sID:0,LatLngX:'43,619153',LatLngY:'25,340438',city:'Свищов',phone:'ФЦ Свищов',addr:'ул."Ал.Константинов" № 18'};
      map_info[30] = {ID:45,sID:0,LatLngX:'42,959697',LatLngY:'23,347342',city:'Своге',phone:'ФЦ Своге',addr:'ул."Цар Симеон" № 31'};
      map_info[31] = {ID:58,sID:0,LatLngX:'43,02095',LatLngY:'25,09568',city:'Севлиево',phone:'ФЦ Севлиево',addr:'ул."Стара планина" № 48'};
      map_info[32] = {ID:71,sID:0,LatLngX:'42,678839',LatLngY:'26,317599',city:'Сливен',phone:'ФЦ Сливен',addr:'ул."Хаджи Димитър" № 16'};
      map_info[33] = {ID:80,sID:0,LatLngX:'41,575674',LatLngY:'24,707093',city:'Смолян',phone:'ФЦ Смолян',addr:'бул."България" № 9'};
      map_info[34] = {ID:89,sID:0,LatLngX:'43,68715',LatLngY:'24,77174',city:'Сомовит',phone:'Кметство с.Сомовит',addr:'ул."Иван Вазов" № 9'};
      map_info[35] = {ID:9,sID:0,LatLngX:'42,693524',LatLngY:'23,350475',city:'София',phone:'ФЦ Оборище',addr:'ул."Оборище" № 72'};
      map_info[36] = {ID:113,sID:0,LatLngX:'43,081234',LatLngY:'25,633193',city:'Велико Търново',phone:'РЗОК',addr:'ул. "Христо Ботев" 9'};
      map_info[37] = {ID:70,sID:0,LatLngX:'42,427038',LatLngY:'25,628057',city:'Стара Загора',phone:'НОИ Стара Загора',addr:'бул."Руски" № 44'};
      map_info[38] = {ID:59,sID:0,LatLngX:'42,90245',LatLngY:'24,71438',city:'Троян',phone:'ФЦ Троян',addr:'ул."Васил Левски" № 14'};
      map_info[39] = {ID:68,sID:0,LatLngX:'41,93043',LatLngY:'25,55619',city:'Хасково',phone:'ФЦ Хасково',addr:'площад "Градска болница" №1'};
      map_info[40] = {ID:5,sID:0,LatLngX:'43,27312',LatLngY:'26,9263',city:'Шумен',phone:'ФЦ Шумен',addr:'ул."Янко Сакъзов" № 8'};
      map_info[41] = {ID:69,sID:0,LatLngX:'42,48412',LatLngY:'26,50889',city:'Ямбол',phone:'ФЦ Ямбол',addr:'бул."Г.С.Раковски" № 7'};
      map_info[42] = {ID:114,sID:0,LatLngX:'42,668353',LatLngY:'23,600855',city:'Елин Пелин',phone:'ФЦ Елин Пелин',addr:'пл. "Независимост" 10'};
      map_info[43] = {ID:116,sID:9,LatLngX:'42,64937',LatLngY:'23,41679',city:'София',phone:'"Столичен автотранспорт" ЕАД - гараж Дружба 2',addr:'ул. "Капитан Любен Кондаков" 7'};
      map_info[44] = {ID:112,sID:28,LatLngX:'42,5016647',LatLngY:'27,4690732',city:'Бургас',phone:'Александровска',addr:'ул. "Александровска" 106'};
      map_info[45] = {ID:30,sID:28,LatLngX:'42,493682',LatLngY:'27,463996',city:'Бургас',phone:'Магазин "Европа"',addr:'ул."Калоян" № 21, пазар "Краснодар"'};
      map_info[46] = {ID:36,sID:28,LatLngX:'42,502873',LatLngY:'27,470756',city:'Бургас',phone:'ИРМ "Сан Стефано"',addr:'ул."Сан Стефано" № 107'};
      map_info[47] = {ID:81,sID:8,LatLngX:'43,215983',LatLngY:'27,928104',city:'Варна',phone:'ИРМ Дружба Стил',addr:'бул."8-ми Приморски полк" № 119'};
      map_info[48] = {ID:100,sID:9,LatLngX:'42,714212',LatLngY:'23,307551',city:'София',phone:'Трамвайно депо "Банишора"',addr:'гр. София, бул. Мария Луиза 193'};
      map_info[49] = {ID:101,sID:90,LatLngX:'43,38663',LatLngY:'23,032569',city:'с. Георги Дамяново',phone:'с. Георги Дамяново',addr:'ул. Единадесета, Кметството'};
      map_info[50] = {ID:82,sID:43,LatLngX:'42,28678',LatLngY:'23,0321',city:'Дупница',phone:'Административна сграда ТЕЦ Бобов дол',addr:'ТЕЦ "Бобов дол" ЕАД '};
      map_info[51] = {ID:14,sID:13,LatLngX:'42,61065',LatLngY:'25,38724',city:'Казанлък',phone:'Завод "Арсенал"',addr:'ул."Розова долина" № 100'};
      map_info[52] = {ID:130,sID:9,LatLngX:'42,697877',LatLngY:'23,321496',city:'София',phone:'Метростанция "Сердика"',addr:'Метростанция "Сердика" - Източен вход (към хотел "Балкан")'};
      map_info[53] = {ID:53,sID:12,LatLngX:'42,6099',LatLngY:'23,03015',city:'Перник',phone:'ФЦ Перник',addr:'ул."Свети Иван Рилски" № 1'};
      map_info[54] = {ID:108,sID:9,LatLngX:'42,660318',LatLngY:'23,285031',city:'София',phone:'ФЦ Белисимо',addr:'гр. София, бул. "България" 102, бизнес център "Белисимо"'};
      map_info[55] = {ID:110,sID:9,LatLngX:'42,666303',LatLngY:'23,400339',city:'София',phone:'Община "Искър"',addr:'гр. София, бул. "Кръстьо Пастухов" 18'};
      map_info[56] = {ID:102,sID:65,LatLngX:'42,145024',LatLngY:'24,753385',city:'Пловдив',phone:'ДКЦ 1 ЕООД',addr:'площад "Понеделник пазар" № 1'};
      map_info[57] = {ID:111,sID:9,LatLngX:'42,656763',LatLngY:'23,353231',city:'София',phone:'ИРМ "Студентски град" към ФЦ КАТ',addr:'ул. Росарио 1, Парк хотел "Витоша"'};
      map_info[58] = {ID:64,sID:65,LatLngX:'42,150616',LatLngY:'24,74433',city:'Пловдив',phone:'ИРМ Съединение',addr:'бул."6-ти Септември" № 144А '};
      map_info[59] = {ID:78,sID:65,LatLngX:'42,147429',LatLngY:'24,729036',city:'Пловдив',phone:'ИРМ Георги Измирлиев',addr:'ул."Георги Измирлиев" № 65'};
      map_info[60] = {ID:73,sID:57,LatLngX:'43,62007',LatLngY:'25,34605',city:'Свищов',phone:'ИРМ Стопанска академия',addr:'ул."Емануил Чакъров" №2'};
      map_info[61] = {ID:3,sID:9,LatLngX:'42,69742',LatLngY:'23,33073',city:'София',phone:'ФЦ Врабча',addr:'ул."Врабча" № 6'};
      map_info[62] = {ID:93,sID:9,LatLngX:'42,71273',LatLngY:'23,312559',city:'София',phone:'5 МБАЛ',addr:'бул."Ген.Н.Столетов" №67 А'};
      map_info[63] = {ID:10,sID:9,LatLngX:'42,722087',LatLngY:'23,256276',city:'София',phone:'ФЦ Люлин',addr:'ж.к."Люлин" 3, Кооперативен пазар'};
      map_info[64] = {ID:11,sID:9,LatLngX:'42,656024',LatLngY:'23,38853',city:'София',phone:'ИРМ "7-ми километър"',addr:'бул. "Цариградско шосе" № 131, АТМ-център'};
      map_info[65] = {ID:17,sID:9,LatLngX:'42,68866',LatLngY:'23,32298',city:'София',phone:'1 МБАЛ София',addr:'бул."Патриарх Евтимий" № 37'};
      map_info[66] = {ID:23,sID:9,LatLngX:'42,641946',LatLngY:'23,33436',city:'София',phone:'хотел "МАКСИ"',addr:'бул."Симеоновско шосе" № 110'};
      map_info[67] = {ID:24,sID:9,LatLngX:'42,69955',LatLngY:'23,28871',city:'София',phone:'ПСАГБАЛ "Света София"',addr:'ул."Михалаки Ташев" №2'};
      map_info[68] = {ID:26,sID:9,LatLngX:'42,640668',LatLngY:'23,382801',city:'София',phone:'ДКЦ 25 ООД',addr:'бул."Свето Преображение" № 1'};
      map_info[69] = {ID:27,sID:9,LatLngX:'42,701606',LatLngY:'23,370838',city:'София',phone:'ДКЦ 18 ООД',addr:'ул."Емануил Васкидович" № 51'};
      map_info[70] = {ID:41,sID:9,LatLngX:'42,674643',LatLngY:'23,290071',city:'София',phone:'ФЦ Красно село',addr:'бул. "Гоце Делчев" № 54'};
      map_info[71] = {ID:42,sID:9,LatLngX:'42,691032',LatLngY:'23,337386',city:'София',phone:'ФЦ Орлов мост',addr:'бул. "Цар Освободител" 33'};
      map_info[72] = {ID:46,sID:9,LatLngX:'42,644416',LatLngY:'23,378456',city:'София',phone:'ФЦ Младост',addr:'ж.к."Младост 3", бл.305'};
      map_info[73] = {ID:47,sID:9,LatLngX:'42,66831',LatLngY:'23,31924',city:'София',phone:'ИРМ Черни връх',addr:'бул."Черни връх" № 39'};
      map_info[74] = {ID:48,sID:9,LatLngX:'42,69918',LatLngY:'23,3055',city:'София',phone:'ФЦ Стамболийски',addr:'бул."Ал.Стамболийски" № 143'};
      map_info[75] = {ID:49,sID:9,LatLngX:'42,69397',LatLngY:'23,32002',city:'София',phone:'ФЦ Денкоглу',addr:'ул."Денкоглу" № 28'};
      map_info[76] = {ID:50,sID:9,LatLngX:'42,708528',LatLngY:'23,32332',city:'София',phone:'ФЦ Мария Луиза',addr:'бул."Мария Луиза" № 88'};
      map_info[77] = {ID:75,sID:9,LatLngX:'42,652339',LatLngY:'23,380022',city:'София',phone:'Търговски център "СИТИ ПОИНТ"',addr:'бул."Александър Малинов" № 23'};
      map_info[78] = {ID:79,sID:9,LatLngX:'42,689019',LatLngY:'23,318088',city:'София',phone:'ФЦ Престиж',addr:'бул."Патриарх Евтимий" № 49'};
      map_info[79] = {ID:83,sID:9,LatLngX:'42,65574',LatLngY:'23,371525',city:'София',phone:'Онкодиспансер',addr:'кв."Младост 1", бул. Андрей Сахаров № 1'};
      map_info[80] = {ID:84,sID:9,LatLngX:'42,678113',LatLngY:'23,364916',city:'София',phone:'ФЦ Слатина',addr:'ул."Шипченски проход" № 46'};
      map_info[81] = {ID:86,sID:9,LatLngX:'42,657026',LatLngY:'23,377233',city:'София',phone:'ФЦ Света Анна',addr:'бул."Йерусалим", бл.10, вх. А'};
      map_info[82] = {ID:95,sID:43,LatLngX:'42,375327',LatLngY:'22,999485',city:'Бобов Дол',phone:'Административна сграда "Въгледобив" гр. Бобов Дол',addr:'гр. Бобов Дол, ул. Г. Димитров'};
      map_info[83] = {ID:96,sID:43,LatLngX:'42,365671',LatLngY:'23,007984',city:'Бобов Дол',phone:'ИРМ Бобов дол',addr:'гр. Бобов дол, ул. “27 Октомври”, бл.19'};
      map_info[84] = {ID:99,sID:87,LatLngX:'43,651781',LatLngY:'23,753546',city:'Бутан',phone:'Кметство с. Бутан',addr:'Кметство'};
      map_info[85] = {ID:105,sID:9,LatLngX:'42,682398',LatLngY:'23,278071',city:'София',phone:'Столичен автотранспорт - гараж Земляне',addr:'ул. "Житница" 21'};
      map_info[86] = {ID:115,sID:9,LatLngX:'42,692462',LatLngY:'23,339918',city:'София',phone:'САГБАЛ "Шейново" ЕАД',addr:'ул. "Шейново" 19'};
      map_info[87] = {ID:117,sID:28,LatLngX:'42,490176',LatLngY:'27,47405',city:'Бургас',phone:'Автогара "Юг"',addr:'&nbsp;'};
      map_info[88] = {ID:118,sID:51,LatLngX:'42,021721',LatLngY:'23,0966198',city:'Благоевград',phone:'Община Благоевград',addr:'пл. "Георги Измирлиев" 1'};
      map_info[89] = {ID:119,sID:9,LatLngX:'42,648043',LatLngY:'23,376616',city:'София',phone:'Метростанция "Александър Малинов"',addr:'МС "Александър Малинов" - Южен вход - към Макдоналдс'};
      map_info[90] = {ID:120,sID:9,LatLngX:'42,653721',LatLngY:'23,371986',city:'София',phone:'Метростанция "Младост I"',addr:'Метростанция "Младост I", източен вход - към пазара'};
      map_info[91] = {ID:121,sID:9,LatLngX:'42,686124',LatLngY:'23,332367',city:'София',phone:'Метростанция "Стадион Васил Левски"',addr:'Метростанция "Стадион Васил Левски"'};
      map_info[92] = {ID:122,sID:9,LatLngX:'42,692438',LatLngY:'23,334711',city:'София',phone:'Метростанция "СУ Кл. Охридски"',addr:'Метростанция "СУ Кл. Охридски", източен вход - към Орлов мост'};
      map_info[93] = {ID:123,sID:9,LatLngX:'42,629081',LatLngY:'23,373354',city:'София',phone:'Метростанция "Бизнес парк"',addr:'Метростанция "Бизнес парк", южен вход - към Бизнес парка'};
      map_info[94] = {ID:124,sID:9,LatLngX:'42,659844',LatLngY:'23,394946',city:'София',phone:'Метростанция "Дружба"',addr:'Метростанция "Дружба" - Северен вход - ъгъла на бул. "Кр. Пастухов" и бул. "Кап. Д. Списаревски"'};
      map_info[95] = {ID:127,sID:9,LatLngX:'42,699325',LatLngY:'23,322199',city:'София',phone:'Метростанция "Сердика II"',addr:'Метростанция Сердика II - Северен вход - към Халите'};
      map_info[96] = {ID:126,sID:9,LatLngX:'42,699596',LatLngY:'23,311853',city:'София',phone:'Метростанция "Опълченска"',addr:'Метростанция "Опълченска" - Източен вход - към Лукойл и Макдоналдс'};
      map_info[97] = {ID:128,sID:9,LatLngX:'42,735444',LatLngY:'23,292978',city:'София',phone:'Метростанция "Бели Дунав"',addr:'Метростанция "Бели Дунав" - към пазара'};
      map_info[98] = {ID:129,sID:9,LatLngX:'42,704662',LatLngY:'23,3238',city:'София',phone:'Метростанция "Лъвов мост"',addr:'Метростанция "Лъвов мост" - Южен вход'};
      map_info[99] = {ID:131,sID:9,LatLngX:'42,701904',LatLngY:'23,298043',city:'София',phone:'Метростанция "Константин Величков"',addr:'Метростанция "Константин Величков" - Западен вход'};
      map_info[100] = {ID:132,sID:9,LatLngX:'42,718407',LatLngY:'23,25723',city:'София',phone:'Метростанция "Люлин"',addr:'Метростанция Люлин - Западен вход (към Билла/ Технополис)'};
      map_info[101] = {ID:133,sID:9,LatLngX:'42,678691',LatLngY:'23,321718',city:'София',phone:'Метростанция "Европейски съюз"',addr:'Метростанция "Европейски съюз" - Южен вход - към хотел "Хемус" и МОЛ Сити Център'};
      map_info[102] = {ID:134,sID:9,LatLngX:'42,686178',LatLngY:'23,319441',city:'София',phone:'Метростанция "НДК"',addr:'Метростанция "НДК" - Южен вход - към НДК'};
      map_info[103] = {ID:135,sID:51,LatLngX:'42,0184309',LatLngY:'23,0769992',city:'Благоевград',phone:'ИРМ "ЮЗУ Неофит Рилски" към ФЦ Благоевград',addr:'гр. Благоевград - 2700, ул. "Иван Михайлов" 66, ЮЗУ "Неофит Рилски" '};